Memory Hierarchy/Instruction set memory and cache/cpu_wavedata.vcd
$date
	Wed Sep 16 11:07:06 2020
$end
$version
	Icarus Verilog
$end
$timescale
	100ps
$end
$scope module cpu_tb $end
$var wire 1 ! BUSYWAIT $end
$var wire 8 " WRITEDATA [7:0] $end
$var wire 1 # WRITE $end
$var wire 8 $ READDATA [7:0] $end
$var wire 1 % READ $end
$var wire 32 & PC [31:0] $end
$var wire 32 ' MEM_WRITEDATA [31:0] $end
$var wire 1 ( MEM_WRITE $end
$var wire 32 ) MEM_READDATA [31:0] $end
$var wire 1 * MEM_READ $end
$var wire 1 + MEM_BUSYWAIT $end
$var wire 6 , MEM_ADDRESS [5:0] $end
$var wire 128 - INSTRUCT_READDATA [127:0] $end
$var wire 1 . INSTRUCT_READ $end
$var wire 1 / INSTRUCT_BUSYWAIT $end
$var wire 6 0 INSTRUCT_ADDRESS [5:0] $end
$var wire 32 1 INSTRUCTION [31:0] $end
$var wire 1 2 INSTCACHE_BUSYWAIT $end
$var wire 1 3 DCACHE_BUSYWAIT $end
$var wire 8 4 ADDRESS [7:0] $end
$var reg 1 5 CLK $end
$var reg 1 6 RESET $end
$var integer 32 7 i [31:0] $end
$scope module mycpu $end
$var wire 1 ! BUSYWAIT $end
$var wire 1 5 CLK $end
$var wire 1 8 PCMUX_SEL $end
$var wire 1 6 RESET $end
$var wire 32 9 new_PC [31:0] $end
$var wire 8 : mux_writeOUT [7:0] $end
$var wire 8 ; mux_twosOUT [7:0] $end
$var wire 8 < mux_immedOUT [7:0] $end
$var wire 8 = inv_REGOUT2 [7:0] $end
$var wire 1 > ZERO $end
$var wire 3 ? WRITEREG [2:0] $end
$var wire 1 @ WRITEMUX_SEL $end
$var wire 1 A WRITEENABLE $end
$var wire 1 # WRITE $end
$var wire 1 B TWOSCOMPMUX_SEL $end
$var wire 8 C REGOUT2 [7:0] $end
$var wire 8 D REGOUT1 [7:0] $end
$var wire 3 E READREG2 [2:0] $end
$var wire 3 F READREG1 [2:0] $end
$var wire 8 G READDATA [7:0] $end
$var wire 1 % READ $end
$var wire 8 H OPCODE [7:0] $end
$var wire 1 I JUMPENABLE $end
$var wire 32 J INSTRUCTION [31:0] $end
$var wire 1 K IMMEDMUX_SEL $end
$var wire 8 L IMMEDIATE_VAL [7:0] $end
$var wire 32 M EXTENDED_VAL [31:0] $end
$var wire 8 N DESTINATION [7:0] $end
$var wire 1 O BRANCHENABLE $end
$var wire 8 P ALURESULT [7:0] $end
$var wire 3 Q ALUOP [2:0] $end
$var reg 32 R PC [31:0] $end
$scope module myalu $end
$var wire 8 S AND_DATA [7:0] $end
$var wire 8 T FORWARD_DATA [7:0] $end
$var wire 8 U JUMP_DATA [7:0] $end
$var wire 8 V OR_DATA [7:0] $end
$var wire 1 > ZERO $end
$var wire 3 W SELECT [2:0] $end
$var wire 8 X DATA2 [7:0] $end
$var wire 8 Y DATA1 [7:0] $end
$var wire 8 Z ADD_DATA [7:0] $end
$var reg 8 [ RESULT [7:0] $end
$upscope $end
$scope module mycontrol $end
$var wire 8 \ OPCODE [7:0] $end
$var wire 32 ] INSTRUCTION [31:0] $end
$var reg 3 ^ ALUOP [2:0] $end
$var reg 1 O BRANCHENABLE $end
$var reg 1 K IMMEDMUX_SEL $end
$var reg 1 I JUMPENABLE $end
$var reg 1 % READ $end
$var reg 1 B TWOSCOMPMUX_SEL $end
$var reg 1 # WRITE $end
$var reg 1 A WRITEENABLE $end
$var reg 1 @ WRITEMUX_SEL $end
$upscope $end
$scope module mymuximmediate $end
$var wire 8 _ IMMEDIATE_VAL [7:0] $end
$var wire 1 K IMMEDMUX_SEL $end
$var wire 8 ` REGOUT [7:0] $end
$var reg 8 a mux_immeOUT [7:0] $end
$upscope $end
$scope module mymuxtwos $end
$var wire 1 B TWOSCOMPMUX_SEL $end
$var wire 8 b inv_REGOUT2 [7:0] $end
$var wire 8 c REGOUT2 [7:0] $end
$var reg 8 d mux_twosOUT [7:0] $end
$upscope $end
$scope module mymuxwrite $end
$var wire 8 e ALURESULT [7:0] $end
$var wire 1 @ WRITEMUX_SEL $end
$var wire 8 f READDATA [7:0] $end
$var reg 8 g mux_writeOUT [7:0] $end
$upscope $end
$scope module mypc $end
$var wire 32 h PC [31:0] $end
$var wire 32 i new_PC [31:0] $end
$var wire 32 j EXTENDED_VAL [31:0] $end
$upscope $end
$scope module myregfile $end
$var wire 1 ! BUSYWAIT $end
$var wire 1 5 CLK $end
$var wire 8 k IN [7:0] $end
$var wire 3 l INADDRESS [2:0] $end
$var wire 8 m OUT1 [7:0] $end
$var wire 3 n OUT1ADDRESS [2:0] $end
$var wire 8 o OUT2 [7:0] $end
$var wire 3 p OUT2ADDRESS [2:0] $end
$var wire 1 6 RESET $end
$var wire 1 A WRITE $end
$var integer 32 q i [31:0] $end
$upscope $end
$scope module mysignextend $end
$var wire 3 r ALUOP [2:0] $end
$var wire 8 s IMMEDI_OFFSET [7:0] $end
$var reg 32 t EXTENDED_VAL [31:0] $end
$upscope $end
$upscope $end
$scope module mydatamem $end
$var wire 1 5 clock $end
$var wire 1 6 reset $end
$var wire 32 u writedata [31:0] $end
$var wire 1 ( write $end
$var wire 1 * read $end
$var wire 6 v address [5:0] $end
$var reg 1 + busywait $end
$var reg 1 w readaccess $end
$var reg 32 x readdata [31:0] $end
$var reg 1 y writeaccess $end
$var integer 32 z i [31:0] $end
$upscope $end
$scope module mydcache $end
$var wire 8 { address [7:0] $end
$var wire 1 5 clock $end
$var wire 1 | hit $end
$var wire 1 + mem_busywait $end
$var wire 32 } mem_readdata [31:0] $end
$var wire 1 % read $end
$var wire 1 6 reset $end
$var wire 3 ~ tag [2:0] $end
$var wire 1 # write $end
$var wire 8 !" writedata [7:0] $end
$var wire 1 "" valid $end
$var wire 1 #" tagMatch $end
$var wire 8 $" readdata [7:0] $end
$var wire 3 %" index [2:0] $end
$var wire 1 &" dirty $end
$var reg 32 '" data [31:0] $end
$var reg 1 3 dcache_busywait $end
$var reg 8 (" dirty_array [7:0] $end
$var reg 6 )" mem_address [5:0] $end
$var reg 1 * mem_read $end
$var reg 1 ( mem_write $end
$var reg 32 *" mem_writedata [31:0] $end
$var reg 3 +" next_state [2:0] $end
$var reg 3 ," state [2:0] $end
$var reg 8 -" valid_array [7:0] $end
$var integer 32 ." i [31:0] $end
$upscope $end
$scope module myinscache $end
$var wire 1 5 clock $end
$var wire 1 /" hit $end
$var wire 11 0" pc [10:0] $end
$var wire 1 6 reset $end
$var wire 3 1" tag [2:0] $end
$var wire 1 2" valid $end
$var wire 1 3" tagMatch $end
$var wire 32 4" instruction [31:0] $end
$var wire 128 5" instruct_readdata [127:0] $end
$var wire 1 / instruct_busywait $end
$var wire 3 6" index [2:0] $end
$var reg 11 7" address [10:0] $end
$var reg 128 8" inst_data [127:0] $end
$var reg 1 2 instcache_busywait $end
$var reg 6 9" instruct_address [5:0] $end
$var reg 1 . instruct_read $end
$var reg 3 :" next_state [2:0] $end
$var reg 3 ;" state [2:0] $end
$var reg 8 <" valid_array [7:0] $end
$var integer 32 =" i [31:0] $end
$upscope $end
$scope module myinstruct $end
$var wire 6 >" address [5:0] $end
$var wire 1 5 clock $end
$var wire 1 . read $end
$var reg 1 / busywait $end
$var reg 1 ?" readaccess $end
$var reg 128 @" readdata [127:0] $end
$upscope $end
$upscope $end
$scope module cpu_tb $end
$scope module mycpu $end
$scope module myregfile $end
$var reg 8 A" \registers[0] [7:0] $end
$upscope $end
$upscope $end
$upscope $end
$scope module cpu_tb $end
$scope module mycpu $end
$scope module myregfile $end
$var reg 8 B" \registers[1] [7:0] $end
$upscope $end
$upscope $end
$upscope $end
$scope module cpu_tb $end
$scope module mycpu $end
$scope module myregfile $end
$var reg 8 C" \registers[2] [7:0] $end
$upscope $end
$upscope $end
$upscope $end
$scope module cpu_tb $end
$scope module mycpu $end
$scope module myregfile $end
$var reg 8 D" \registers[3] [7:0] $end
$upscope $end
$upscope $end
$upscope $end
$scope module cpu_tb $end
$scope module mycpu $end
$scope module myregfile $end
$var reg 8 E" \registers[4] [7:0] $end
$upscope $end
$upscope $end
$upscope $end
$scope module cpu_tb $end
$scope module mycpu $end
$scope module myregfile $end
$var reg 8 F" \registers[5] [7:0] $end
$upscope $end
$upscope $end
$upscope $end
$scope module cpu_tb $end
$scope module mycpu $end
$scope module myregfile $end
$var reg 8 G" \registers[6] [7:0] $end
$upscope $end
$upscope $end
$upscope $end
$scope module cpu_tb $end
$scope module mycpu $end
$scope module myregfile $end
$var reg 8 H" \registers[7] [7:0] $end
$upscope $end
$upscope $end
$upscope $end
$enddefinitions $end
#0
$dumpvars
bx H"
bx G"
bx F"
bx E"
bx D"
bx C"
bx B"
bx A"
bx @"
0?"
bx >"
bx ="
bx <"
bx ;"
bx :"
bx 9"
bx 8"
bx 7"
bx 6"
bx 5"
bx 4"
x3"
x2"
bx 1"
bx 0"
x/"
bx ."
bx -"
bx ,"
bx +"
bx *"
bx )"
bx ("
bx '"
x&"
bx %"
bx $"
x#"
x""
bx !"
bx ~
bx }
x|
bx {
bx z
xy
bx x
xw
bx v
bx u
bx t
bx s
bx r
bx q
bx p
bx o
bx n
bx m
bx l
bx k
bx j
bx i
bx h
bx g
bx f
bx e
bx d
bx c
bx b
bx a
bx `
bx _
bx ^
bx ]
bx \
bx [
bx Z
bx Y
bx X
bx W
bx V
bx U
bx T
bx S
bx R
bx Q
bx P
xO
bx N
bx M
bx L
xK
bx J
xI
bx H
bx G
bx F
bx E
bx D
bx C
xB
xA
x@
bx ?
x>
bx =
bx <
bx ;
bx :
bx 9
x8
b1000 7
06
15
bx 4
x3
x2
bx 1
bx 0
0/
x.
bx -
bx ,
x+
x*
bx )
x(
bx '
bx &
x%
bx $
x#
bx "
x!
$end
#10
b0 U
#20
03
b0xxxxx ,
b0xxxxx v
b0xxxxx )"
0(
0*
b0 +"
0.
b0 :"
b0 <"
b1000 ="
0y
0w
0+
b100000000 z
b0 ("
b0 -"
b1000 ."
b0 ,"
b0 ;"
16
#30
0!
b111 6"
02
b11111111100 7"
b11111111100 0"
b11111111111111111111111111111100 &
b11111111111111111111111111111100 R
b11111111111111111111111111111100 h
#40
0/"
b0 8"
b0 1"
02"
b0 H"
b0 G"
b0 F"
b0 E"
b0 D"
b0 C"
b0 B"
b0 A"
b1000 q
05
#49
03"
#50
b0 \
b0 E
b0 p
b0 F
b0 n
b0 ?
b0 l
b0 L
b0 _
b0 N
b0 s
b0 H
1A
0K
0%
0#
b0 1
b0 J
b0 ]
b0 4"
#60
b0 <
b0 X
b0 a
b0 M
b0 j
b0 t
08
1K
b0 Q
b0 W
b0 ^
b0 r
0@
0I
0O
0B
06
#70
b0 :
b0 g
b0 k
b0 %"
1>
b0 4
b0 P
b0 [
b0 e
b0 {
b0 ;
b0 `
b0 d
b0 S
b0 T
b0 9
b0 i
b0 C
b0 c
b0 o
b0 "
b0 D
b0 Y
b0 m
b0 !"
#80
0|
0""
0&"
b0 =
b0 b
b0 V
15
#90
1!
b1 :"
b0 6"
12
b0 7"
b0 0"
b0 &
b0 R
b0 h
b0 A"
b0 Z
#99
13"
#100
b100 9
b100 i
#120
05
#160
1?"
1/
b0 0
b0 9"
b0 >"
1.
b1 :"
b1 ;"
15
#200
05
#240
15
#280
05
#320
15
#360
05
#400
15
#440
05
#480
15
#520
05
#560
15
#600
05
#640
15
bx00000001 -
bx00000001 5"
bx00000001 @"
#680
05
#720
15
#760
05
#800
15
#840
05
#880
15
#920
05
#960
15
#1000
05
#1040
15
bx0000000000000001 -
bx0000000000000001 5"
bx0000000000000001 @"
#1080
05
#1120
15
#1160
05
#1200
15
#1240
05
#1280
15
#1320
05
#1360
15
#1400
05
#1440
15
bx000000000000000000000001 -
bx000000000000000000000001 5"
bx000000000000000000000001 @"
#1480
05
#1520
15
#1560
05
#1600
15
#1640
05
#1680
15
#1720
05
#1760
15
#1800
05
#1840
15
bx00001001000000000000000000000001 -
bx00001001000000000000000000000001 5"
bx00001001000000000000000000000001 @"
#1880
05
#1920
15
#1960
05
#2000
15
#2040
05
#2080
15
#2120
05
#2160
15
#2200
05
#2240
15
bx0000110000001001000000000000000000000001 -
bx0000110000001001000000000000000000000001 5"
bx0000110000001001000000000000000000000001 @"
#2280
05
#2320
15
#2360
05
#2400
15
#2440
05
#2480
15
#2520
05
#2560
15
#2600
05
#2640
15
bx000000000000110000001001000000000000000000000001 -
bx000000000000110000001001000000000000000000000001 5"
bx000000000000110000001001000000000000000000000001 @"
#2680
05
#2720
15
#2760
05
#2800
15
#2840
05
#2880
15
#2920
05
#2960
15
#3000
05
#3040
15
bx00000000000000000000110000001001000000000000000000000001 -
bx00000000000000000000110000001001000000000000000000000001 5"
bx00000000000000000000110000001001000000000000000000000001 @"
#3080
05
#3120
15
#3160
05
#3200
15
#3240
05
#3280
15
#3320
05
#3360
15
#3400
05
#3440
15
bx0000000000000000000000000000110000001001000000000000000000000001 -
bx0000000000000000000000000000110000001001000000000000000000000001 5"
bx0000000000000000000000000000110000001001000000000000000000000001 @"
#3480
05
#3520
15
#3560
05
#3600
15
#3640
05
#3680
15
#3720
05
#3760
15
#3800
05
#3840
15
bx000010100000000000000000000000000000110000001001000000000000000000000001 -
bx000010100000000000000000000000000000110000001001000000000000000000000001 5"
bx000010100000000000000000000000000000110000001001000000000000000000000001 @"
#3880
05
#3920
15
#3960
05
#4000
15
#4040
05
#4080
15
#4120
05
#4160
15
#4200
05
#4240
15
bx00000000000010100000000000000000000000000000110000001001000000000000000000000001 -
bx00000000000010100000000000000000000000000000110000001001000000000000000000000001 5"
bx00000000000010100000000000000000000000000000110000001001000000000000000000000001 @"
#4280
05
#4320
15
#4360
05
#4400
15
#4440
05
#4480
15
#4520
05
#4560
15
#4600
05
#4640
15
bx0000000100000000000010100000000000000000000000000000110000001001000000000000000000000001 -
bx0000000100000000000010100000000000000000000000000000110000001001000000000000000000000001 5"
bx0000000100000000000010100000000000000000000000000000110000001001000000000000000000000001 @"
#4680
05
#4720
15
#4760
05
#4800
15
#4840
05
#4880
15
#4920
05
#4960
15
#5000
05
#5040
15
bx000000000000000100000000000010100000000000000000000000000000110000001001000000000000000000000001 -
bx000000000000000100000000000010100000000000000000000000000000110000001001000000000000000000000001 5"
bx000000000000000100000000000010100000000000000000000000000000110000001001000000000000000000000001 @"
#5080
05
#5120
15
#5160
05
#5200
15
#5240
05
#5280
15
#5320
05
#5360
15
#5400
05
#5440
15
bx00000000000000000000000100000000000010100000000000000000000000000000110000001001000000000000000000000001 -
bx00000000000000000000000100000000000010100000000000000000000000000000110000001001000000000000000000000001 5"
bx00000000000000000000000100000000000010100000000000000000000000000000110000001001000000000000000000000001 @"
#5480
05
#5520
15
#5560
05
#5600
15
#5640
05
#5680
15
#5720
05
#5760
15
#5800
05
#5840
15
bx0000000100000000000000000000000100000000000010100000000000000000000000000000110000001001000000000000000000000001 -
bx0000000100000000000000000000000100000000000010100000000000000000000000000000110000001001000000000000000000000001 5"
bx0000000100000000000000000000000100000000000010100000000000000000000000000000110000001001000000000000000000000001 @"
#5880
05
#5920
15
#5960
05
#6000
15
#6040
05
#6080
15
#6120
05
#6160
15
#6200
05
#6240
15
bx000000100000000100000000000000000000000100000000000010100000000000000000000000000000110000001001000000000000000000000001 -
bx000000100000000100000000000000000000000100000000000010100000000000000000000000000000110000001001000000000000000000000001 5"
bx000000100000000100000000000000000000000100000000000010100000000000000000000000000000110000001001000000000000000000000001 @"
#6280
05
#6320
15
#6360
05
#6400
15
#6440
05
#6480
15
#6520
05
#6560
15
#6600
05
#6640
bx 0
bx 9"
bx >"
0.
b10 ;"
b0 :"
15
0?"
0/
b10000000100000000100000000000000000000000100000000000010100000000000000000000000000000110000001001000000000000000000000001 -
b10000000100000000100000000000000000000000100000000000010100000000000000000000000000000110000001001000000000000000000000001 5"
b10000000100000000100000000000000000000000100000000000010100000000000000000000000000000110000001001000000000000000000000001 @"
#6650
b1 <"
#6660
1/"
b10000000100000000100000000000000000000000100000000000010100000000000000000000000000000110000001001000000000000000000000001 8"
12"
#6670
b1001 \
b1 E
b1 p
b1 L
b1 _
b1001 H
0K
b1001000000000000000000000001 1
b1001000000000000000000000001 J
b1001000000000000000000000001 ]
b1001000000000000000000000001 4"
#6680
b1 <
b1 X
b1 a
b1 +"
13
bx :
bx g
bx k
1K
1%
1@
05
#6690
0>
b1 4
b1 P
b1 [
b1 e
b1 {
b1 V
b1 T
#6700
b1 Z
#6720
1w
1+
b0 ,
b0 v
b0 )"
1*
b1 +"
02
b0 ;"
b1 ,"
15
#6760
05
#6800
15
#6840
05
#6880
15
#6920
05
#6960
15
#7000
05
#7040
15
#7080
05
#7120
15
#7160
05
#7200
15
bx00000000 )
bx00000000 x
bx00000000 }
#7240
05
#7280
15
#7320
05
#7360
15
#7400
05
#7440
15
#7480
05
#7520
15
#7560
05
#7600
15
bx0000000000000000 )
bx0000000000000000 x
bx0000000000000000 }
#7640
05
#7680
15
#7720
05
#7760
15
#7800
05
#7840
15
#7880
05
#7920
15
#7960
05
#8000
15
bx000000000000000000000000 )
bx000000000000000000000000 x
bx000000000000000000000000 }
#8040
05
#8080
15
#8120
05
#8160
15
#8200
05
#8240
15
#8280
05
#8320
15
#8360
05
#8400
b0xxxxx ,
b0xxxxx v
b0xxxxx )"
0*
b11 ,"
b0 +"
15
0w
0+
b0 )
b0 x
b0 }
#8410
b1 -"
#8420
x|
b0 '"
1""
b0 ~
#8429
1|
1#"
#8430
b0 :
b0 g
b0 k
b0 $
b0 G
b0 f
b0 $"
#8440
05
#8480
0!
03
b0 ,"
15
#8490
1!
12
b100 7"
b100 0"
b0 A"
b100 &
b100 R
b100 h
#8500
b0 <
b0 X
b0 a
b0 \
b100 E
b100 p
b1100 L
b1100 _
b0 H
0K
0%
b1100 1
b1100 J
b1100 ]
b1100 4"
b1000 9
b1000 i
#8510
1>
b0 4
b0 P
b0 [
b0 e
b0 {
b1100 <
b1100 X
b1100 a
b0 :
b0 g
b0 k
b0 V
b0 T
1K
0@
#8520
b1100 :
b1100 g
b1100 k
b11 %"
0>
b1100 4
b1100 P
b1100 [
b1100 e
b1100 {
b1100 V
b1100 T
05
#8530
0|
bx '"
bx ~
0""
b1100 Z
#8539
x#"
#8540
bx $
bx G
bx f
bx $"
#8560
0!
02
15
#8570
1!
12
b1000 7"
b1000 0"
b1000 &
b1000 R
b1000 h
b1100 A"
#8580
b0 <
b0 X
b0 a
b10 E
b10 p
b1 ?
b1 l
b1010 L
b1010 _
b1 N
b1 s
0K
b10000000000001010 1
b10000000000001010 J
b10000000000001010 ]
b10000000000001010 4"
b1100 9
b1100 i
#8590
b0 :
b0 g
b0 k
b0 %"
1>
b0 4
b0 P
b0 [
b0 e
b0 {
b1010 <
b1010 X
b1010 a
b0 V
b0 T
1K
b1100 "
b1100 D
b1100 Y
b1100 m
b1100 !"
#8600
b1010 :
b1010 g
b1010 k
b10 %"
x|
0>
b1010 4
b1010 P
b1010 [
b1010 e
b1010 {
b0 '"
b0 ~
1""
b1000 S
b1010 T
b1110 V
05
#8609
1|
1#"
#8610
0|
b0 $
b0 G
b0 f
b0 $"
bx '"
bx ~
0""
b10110 Z
#8619
x#"
#8620
bx $
bx G
bx f
bx $"
#8640
0!
02
15
#8650
1!
12
b1100 7"
b1100 0"
b1010 B"
b1100 &
b1100 R
b1100 h
#8660
b0 <
b0 X
b0 a
b10 \
b0 E
b0 p
b1 F
b1 n
b10 ?
b10 l
b0 L
b0 _
b10 N
b10 s
b10 H
0K
b10000000100000000100000000 1
b10000000100000000100000000 J
b10000000100000000100000000 ]
b10000000100000000100000000 4"
b10000 9
b10000 i
#8670
b10110 :
b10110 g
b10110 k
b101 %"
b10110 4
b10110 P
b10110 [
b10110 e
b10110 {
b1000 M
b1000 j
b1000 t
b1100 V
b0 S
b0 T
b1 Q
b1 W
b1 ^
b1 r
#8680
b1100 :
b1100 g
b1100 k
b11 %"
b1100 <
b1100 X
b1100 a
b1100 4
b1100 P
b1100 [
b1100 e
b1100 {
b1100 ;
b1100 `
b1100 d
b11000 9
b11000 i
b1100 Z
b1100 C
b1100 c
b1100 o
b1010 "
b1010 D
b1010 Y
b1010 m
b1010 !"
05
#8690
b1000 S
b1100 T
b11110100 =
b11110100 b
b1110 V
#8700
b10110 :
b10110 g
b10110 k
b101 %"
b10110 4
b10110 P
b10110 [
b10110 e
b10110 {
b10110 Z
#8720
0!
02
15
#8730
1!
b1 6"
12
b10000 7"
b10000 0"
b10000 &
b10000 R
b10000 h
b10110 C"
#8740
b1 :"
b1001 \
b1 E
b1 p
b0 F
b0 n
b0 ?
b0 l
b1 L
b1 _
b0 N
b0 s
b1001 H
0/"
b1001000000000000000000000001 1
b1001000000000000000000000001 J
b1001000000000000000000000001 ]
b1001000000000000000000000001 4"
b0 8"
02"
b11100 9
b11100 i
#8750
b11 %"
b0 \
b0 E
b0 p
b0 L
b0 _
b0 H
b1100 <
b1100 X
b1100 a
b0 +"
03
bx :
bx g
bx k
b1100 4
b1100 P
b1100 [
b1100 e
b1100 {
b0 M
b0 j
b0 t
b0 1
b0 J
b0 ]
b0 4"
0K
0%
1@
b0 Q
b0 W
b0 ^
b0 r
#8760
b0 <
b0 X
b0 a
b1100 :
b1100 g
b1100 k
1K
0@
b10100 9
b10100 i
b1100 "
b1100 D
b1100 Y
b1100 m
b1100 !"
05
#8770
b0 :
b0 g
b0 k
b0 %"
1>
b0 4
b0 P
b0 [
b0 e
b0 {
b0 T
b1100 V
b0 S
#8780
x|
b0 '"
b0 ~
1""
b1100 Z
#8789
1|
1#"
#8790
b0 $
b0 G
b0 f
b0 $"
#8800
1?"
1/
b1 0
b1 9"
b1 >"
1.
b1 :"
b1 ;"
15
#8840
05
#8880
15
#8920
05
#8960
15
#9000
05
#9040
15
#9080
05
#9120
15
#9160
05
#9200
15
#9240
05
#9280
15
b10000000100000000100000000000000000000000100000000000010100000000000000000000000000000110000001001000000000000000000000000 -
b10000000100000000100000000000000000000000100000000000010100000000000000000000000000000110000001001000000000000000000000000 5"
b10000000100000000100000000000000000000000100000000000010100000000000000000000000000000110000001001000000000000000000000000 @"
#9320
05
#9360
15
#9400
05
#9440
15
#9480
05
#9520
15
#9560
05
#9600
15
#9640
05
#9680
15
b10000000100000000100000000000000000000000100000000000010100000000000000000000000000000110000001001000000000000000100000000 -
b10000000100000000100000000000000000000000100000000000010100000000000000000000000000000110000001001000000000000000100000000 5"
b10000000100000000100000000000000000000000100000000000010100000000000000000000000000000110000001001000000000000000100000000 @"
#9720
05
#9760
15
#9800
05
#9840
15
#9880
05
#9920
15
#9960
05
#10000
15
#10040
05
#10080
15
#10120
05
#10160
15
#10200
05
#10240
15
#10280
05
#10320
15
#10360
05
#10400
15
#10440
05
#10480
15
b10000000100000000100000000000000000000000100000000000010100000000000000000000000000000110000001010000000000000000100000000 -
b10000000100000000100000000000000000000000100000000000010100000000000000000000000000000110000001010000000000000000100000000 5"
b10000000100000000100000000000000000000000100000000000010100000000000000000000000000000110000001010000000000000000100000000 @"
#10520
05
#10560
15
#10600
05
#10640
15
#10680
05
#10720
15
#10760
05
#10800
15
#10840
05
#10880
15
b10000000100000000100000000000000000000000100000000000010100000000000000000000000001111011100001010000000000000000100000000 -
b10000000100000000100000000000000000000000100000000000010100000000000000000000000001111011100001010000000000000000100000000 5"
b10000000100000000100000000000000000000000100000000000010100000000000000000000000001111011100001010000000000000000100000000 @"
#10920
05
#10960
15
#11000
05
#11040
15
#11080
05
#11120
15
#11160
05
#11200
15
#11240
05
#11280
15
#11320
05
#11360
15
#11400
05
#11440
15
#11480
05
#11520
15
#11560
05
#11600
15
#11640
05
#11680
15
b10000000100000000100000000000000000000000100000000000010100000000000000011000000001111011100001010000000000000000100000000 -
b10000000100000000100000000000000000000000100000000000010100000000000000011000000001111011100001010000000000000000100000000 5"
b10000000100000000100000000000000000000000100000000000010100000000000000011000000001111011100001010000000000000000100000000 @"
#11720
05
#11760
15
#11800
05
#11840
15
#11880
05
#11920
15
#11960
05
#12000
15
#12040
05
#12080
15
#12120
05
#12160
15
#12200
05
#12240
15
#12280
05
#12320
15
#12360
05
#12400
15
#12440
05
#12480
15
b10000000100000000100000000000000000000000100000000000110010000000000000011000000001111011100001010000000000000000100000000 -
b10000000100000000100000000000000000000000100000000000110010000000000000011000000001111011100001010000000000000000100000000 5"
b10000000100000000100000000000000000000000100000000000110010000000000000011000000001111011100001010000000000000000100000000 @"
#12520
05
#12560
15
#12600
05
#12640
15
#12680
05
#12720
15
#12760
05
#12800
15
#12840
05
#12880
15
b10000000100000000100000000000000000000000100000010000110010000000000000011000000001111011100001010000000000000000100000000 -
b10000000100000000100000000000000000000000100000010000110010000000000000011000000001111011100001010000000000000000100000000 5"
b10000000100000000100000000000000000000000100000010000110010000000000000011000000001111011100001010000000000000000100000000 @"
#12920
05
#12960
15
#13000
05
#13040
15
#13080
05
#13120
15
#13160
05
#13200
15
#13240
05
#13280
15
b10000000100000000100000000000000000000000000000010000110010000000000000011000000001111011100001010000000000000000100000000 -
b10000000100000000100000000000000000000000000000010000110010000000000000011000000001111011100001010000000000000000100000000 5"
b10000000100000000100000000000000000000000000000010000110010000000000000011000000001111011100001010000000000000000100000000 @"
#13320
05
#13360
15
#13400
05
#13440
15
#13480
05
#13520
15
#13560
05
#13600
15
#13640
05
#13680
15
b10000000100000000100000000000010110000000000000010000110010000000000000011000000001111011100001010000000000000000100000000 -
b10000000100000000100000000000010110000000000000010000110010000000000000011000000001111011100001010000000000000000100000000 5"
b10000000100000000100000000000010110000000000000010000110010000000000000011000000001111011100001010000000000000000100000000 @"
#13720
05
#13760
15
#13800
05
#13840
15
#13880
05
#13920
15
#13960
05
#14000
15
#14040
05
#14080
15
b10000000100000000100000010000010110000000000000010000110010000000000000011000000001111011100001010000000000000000100000000 -
b10000000100000000100000010000010110000000000000010000110010000000000000011000000001111011100001010000000000000000100000000 5"
b10000000100000000100000010000010110000000000000010000110010000000000000011000000001111011100001010000000000000000100000000 @"
#14120
05
#14160
15
#14200
05
#14240
15
#14280
05
#14320
15
#14360
05
#14400
15
#14440
05
#14480
15
#14520
05
#14560
15
#14600
05
#14640
15
#14680
05
#14720
15
#14760
05
#14800
15
#14840
05
#14880
15
b10000001000000000100000010000010110000000000000010000110010000000000000011000000001111011100001010000000000000000100000000 -
b10000001000000000100000010000010110000000000000010000110010000000000000011000000001111011100001010000000000000000100000000 5"
b10000001000000000100000010000010110000000000000010000110010000000000000011000000001111011100001010000000000000000100000000 @"
#14920
05
#14960
15
#15000
05
#15040
15
#15080
05
#15120
15
#15160
05
#15200
15
#15240
05
#15280
bx 0
bx 9"
bx >"
0.
b10 ;"
b0 :"
15
0?"
0/
b11000001000000000100000010000010110000000000000010000110010000000000000011000000001111011100001010000000000000000100000000 -
b11000001000000000100000010000010110000000000000010000110010000000000000011000000001111011100001010000000000000000100000000 5"
b11000001000000000100000010000010110000000000000010000110010000000000000011000000001111011100001010000000000000000100000000 @"
#15290
b11 <"
#15300
1/"
b11000001000000000100000010000010110000000000000010000110010000000000000011000000001111011100001010000000000000000100000000 8"
12"
#15310
b1100 <
b1100 X
b1100 a
b1010 \
b1 F
b1 n
b1010 H
0K
b1010000000000000000100000000 1
b1010000000000000000100000000 J
b1010000000000000000100000000 ]
b1010000000000000000100000000 4"
#15320
b1100 :
b1100 g
b1100 k
b11 %"
0>
b1100 4
b1100 P
b1100 [
b1100 e
b1100 {
13
b1100 S
b1100 T
1#
0A
05
#15330
b1 +"
0|
bx '"
bx ~
0""
b11000 Z
b1010 "
b1010 D
b1010 Y
b1010 m
b1010 !"
#15339
x#"
#15340
bx $
bx G
bx f
bx $"
b1110 V
b1000 S
#15350
b10110 Z
#15360
1w
1+
b11 ,
b11 v
b11 )"
1*
b1 +"
02
b0 ;"
b1 ,"
15
