Memory Hierarchy/Data cache/cpu_wavedata.vcd
$date
	Wed Jun 17 21:05:09 2020
$end
$version
	Icarus Verilog
$end
$timescale
	100ps
$end
$scope module cpu_tb $end
$var wire 8 ! WRITEDATA [7:0] $end
$var wire 1 " WRITE $end
$var wire 8 # READDATA [7:0] $end
$var wire 1 $ READ $end
$var wire 32 % PC [31:0] $end
$var wire 32 & MEM_WRITEDATA [31:0] $end
$var wire 1 ' MEM_WRITE $end
$var wire 32 ( MEM_READDATA [31:0] $end
$var wire 1 ) MEM_READ $end
$var wire 1 * MEM_BUSYWAIT $end
$var wire 6 + MEM_ADDRESS [5:0] $end
$var wire 32 , INSTRUCTION [31:0] $end
$var wire 1 - BUSYWAIT $end
$var wire 8 . ADDRESS [7:0] $end
$var reg 1 / CLK $end
$var reg 1 0 RESET $end
$scope module mycpu $end
$var wire 1 / CLK $end
$var wire 32 1 INSTRUCTION [31:0] $end
$var wire 1 2 PCMUX_SEL $end
$var wire 1 0 RESET $end
$var wire 32 3 new_PC [31:0] $end
$var wire 8 4 mux_writeOUT [7:0] $end
$var wire 8 5 mux_twosOUT [7:0] $end
$var wire 8 6 mux_immedOUT [7:0] $end
$var wire 8 7 inv_REGOUT2 [7:0] $end
$var wire 1 8 ZERO $end
$var wire 3 9 WRITEREG [2:0] $end
$var wire 1 : WRITEMUX_SEL $end
$var wire 1 ; WRITEENABLE $end
$var wire 1 " WRITE $end
$var wire 1 < TWOSCOMPMUX_SEL $end
$var wire 8 = REGOUT2 [7:0] $end
$var wire 8 > REGOUT1 [7:0] $end
$var wire 3 ? READREG2 [2:0] $end
$var wire 3 @ READREG1 [2:0] $end
$var wire 8 A READDATA [7:0] $end
$var wire 1 $ READ $end
$var wire 8 B OPCODE [7:0] $end
$var wire 1 C JUMPENABLE $end
$var wire 1 D IMMEDMUX_SEL $end
$var wire 8 E IMMEDIATE_VAL [7:0] $end
$var wire 32 F EXTENDED_VAL [31:0] $end
$var wire 8 G DESTINATION [7:0] $end
$var wire 1 - BUSYWAIT $end
$var wire 1 H BRANCHENABLE $end
$var wire 8 I ALURESULT [7:0] $end
$var wire 3 J ALUOP [2:0] $end
$var reg 32 K PC [31:0] $end
$scope module myalu $end
$var wire 8 L AND_DATA [7:0] $end
$var wire 8 M FORWARD_DATA [7:0] $end
$var wire 8 N JUMP_DATA [7:0] $end
$var wire 8 O OR_DATA [7:0] $end
$var wire 1 8 ZERO $end
$var wire 3 P SELECT [2:0] $end
$var wire 8 Q DATA2 [7:0] $end
$var wire 8 R DATA1 [7:0] $end
$var wire 8 S ADD_DATA [7:0] $end
$var reg 8 T RESULT [7:0] $end
$upscope $end
$scope module mycontrol $end
$var wire 32 U INSTRUCTION [31:0] $end
$var wire 8 V OPCODE [7:0] $end
$var reg 3 W ALUOP [2:0] $end
$var reg 1 H BRANCHENABLE $end
$var reg 1 D IMMEDMUX_SEL $end
$var reg 1 C JUMPENABLE $end
$var reg 1 $ READ $end
$var reg 1 < TWOSCOMPMUX_SEL $end
$var reg 1 " WRITE $end
$var reg 1 ; WRITEENABLE $end
$var reg 1 : WRITEMUX_SEL $end
$upscope $end
$scope module mymuximmediate $end
$var wire 8 X IMMEDIATE_VAL [7:0] $end
$var wire 1 D IMMEDMUX_SEL $end
$var wire 8 Y REGOUT [7:0] $end
$var reg 8 Z mux_immeOUT [7:0] $end
$upscope $end
$scope module mymuxtwos $end
$var wire 1 < TWOSCOMPMUX_SEL $end
$var wire 8 [ inv_REGOUT2 [7:0] $end
$var wire 8 \ REGOUT2 [7:0] $end
$var reg 8 ] mux_twosOUT [7:0] $end
$upscope $end
$scope module mymuxwrite $end
$var wire 8 ^ ALURESULT [7:0] $end
$var wire 1 : WRITEMUX_SEL $end
$var wire 8 _ READDATA [7:0] $end
$var reg 8 ` mux_writeOUT [7:0] $end
$upscope $end
$scope module mypc $end
$var wire 32 a PC [31:0] $end
$var wire 32 b new_PC [31:0] $end
$var wire 32 c EXTENDED_VAL [31:0] $end
$upscope $end
$scope module myregfile $end
$var wire 1 / CLK $end
$var wire 8 d IN [7:0] $end
$var wire 3 e INADDRESS [2:0] $end
$var wire 8 f OUT1 [7:0] $end
$var wire 3 g OUT1ADDRESS [2:0] $end
$var wire 8 h OUT2 [7:0] $end
$var wire 3 i OUT2ADDRESS [2:0] $end
$var wire 1 0 RESET $end
$var wire 1 ; WRITE $end
$var wire 1 - BUSYWAIT $end
$var integer 32 j i [31:0] $end
$upscope $end
$scope module mysignextend $end
$var wire 3 k ALUOP [2:0] $end
$var wire 8 l IMMEDI_OFFSET [7:0] $end
$var reg 32 m EXTENDED_VAL [31:0] $end
$upscope $end
$upscope $end
$scope module mydatamem $end
$var wire 1 / clock $end
$var wire 1 0 reset $end
$var wire 32 n writedata [31:0] $end
$var wire 1 ' write $end
$var wire 1 ) read $end
$var wire 6 o address [5:0] $end
$var reg 1 * busywait $end
$var reg 1 p readaccess $end
$var reg 32 q readdata [31:0] $end
$var reg 1 r writeaccess $end
$var integer 32 s i [31:0] $end
$upscope $end
$scope module mydcache $end
$var wire 8 t address [7:0] $end
$var wire 1 / clock $end
$var wire 1 u hit $end
$var wire 1 * mem_busywait $end
$var wire 32 v mem_readdata [31:0] $end
$var wire 1 $ read $end
$var wire 1 0 reset $end
$var wire 3 w tag [2:0] $end
$var wire 1 " write $end
$var wire 8 x writedata [7:0] $end
$var wire 1 y valid $end
$var wire 1 z tagMatch $end
$var wire 8 { readdata [7:0] $end
$var wire 3 | index [2:0] $end
$var wire 1 } dirty $end
$var reg 1 - busywait $end
$var reg 32 ~ data [31:0] $end
$var reg 8 !" dirty_array [7:0] $end
$var reg 6 "" mem_address [5:0] $end
$var reg 1 ) mem_read $end
$var reg 1 ' mem_write $end
$var reg 32 #" mem_writedata [31:0] $end
$var reg 3 $" next_state [2:0] $end
$var reg 3 %" state [2:0] $end
$var reg 8 &" valid_array [7:0] $end
$var integer 32 '" i [31:0] $end
$upscope $end
$upscope $end
$enddefinitions $end
#0
$dumpvars
bx '"
bx &"
bx %"
bx $"
bx #"
bx ""
bx !"
bx ~
x}
bx |
bx {
xz
xy
bx x
bx w
bx v
xu
bx t
bx s
xr
bx q
xp
bx o
bx n
bx m
bx l
bx k
bx j
bx i
bx h
bx g
bx f
bx e
bx d
bx c
bx b
bx a
bx `
bx _
bx ^
bx ]
bx \
bx [
bx Z
bx Y
bx X
bx W
bx V
bx U
bx T
bx S
bx R
bx Q
bx P
bx O
bx N
bx M
bx L
bx K
bx J
bx I
xH
bx G
bx F
bx E
xD
xC
bx B
bx A
bx @
bx ?
bx >
bx =
x<
x;
x:
bx 9
x8
bx 7
bx 6
bx 5
bx 4
bx 3
x2
bx 1
00
1/
bx .
x-
bx ,
bx +
x*
x)
bx (
x'
bx &
bx %
x$
bx #
x"
bx !
$end
#10
b0 N
#20
0-
b0xxxxx +
b0xxxxx o
b0xxxxx ""
0'
0)
b0 $"
0r
0p
0*
b100000000 s
b0 !"
b0 &"
b1000 '"
b0 %"
10
#30
b11111111111111111111111111111100 %
b11111111111111111111111111111100 K
b11111111111111111111111111111100 a
#40
b1000 j
0/
#60
00
#80
1/
#90
b0 %
b0 K
b0 a
#110
b1001 B
b0 G
b0 l
b1 E
b1 X
b0 9
b0 e
b0 @
b0 g
b1 ?
b1 i
1;
0D
0$
0"
b1001 V
b1001000000000000000000000001 ,
b1001000000000000000000000001 1
b1001000000000000000000000001 U
#120
b1 6
b1 Q
b1 Z
1-
b0 F
b0 c
b0 m
02
1D
1$
b0 J
b0 P
b0 W
b0 k
1:
0C
0H
0<
0/
#130
b0 |
08
b1 .
b1 I
b1 T
b1 ^
b1 t
b0 5
b0 Y
b0 ]
bx1 O
b0x L
b1 M
b100 3
b100 b
b0 !
b0 >
b0 R
b0 f
b0 x
b0 =
b0 \
b0 h
#140
b1 $"
0u
0y
0}
b1 O
b0 L
b0 7
b0 [
#150
b1 S
#160
1p
1*
b0 +
b0 o
b0 ""
1)
b1 $"
b1 %"
1/
#200
0/
#240
1/
#280
0/
#320
1/
#360
0/
#400
1/
#440
0/
#480
1/
#520
0/
#560
1/
#600
0/
#640
1/
bx00000000 (
bx00000000 q
bx00000000 v
#680
0/
#720
1/
#760
0/
#800
1/
#840
0/
#880
1/
#920
0/
#960
1/
#1000
0/
#1040
1/
bx0000000000000000 (
bx0000000000000000 q
bx0000000000000000 v
#1080
0/
#1120
1/
#1160
0/
#1200
1/
#1240
0/
#1280
1/
#1320
0/
#1360
1/
#1400
0/
#1440
1/
bx000000000000000000000000 (
bx000000000000000000000000 q
bx000000000000000000000000 v
#1480
0/
#1520
1/
#1560
0/
#1600
1/
#1640
0/
#1680
1/
#1720
0/
#1760
1/
#1800
0/
#1840
b0xxxxx +
b0xxxxx o
b0xxxxx ""
0)
b11 %"
b0 $"
1/
0p
0*
b0 (
b0 q
b0 v
#1850
b1 &"
#1860
xu
b0 ~
1y
b0 w
#1869
1u
1z
#1870
b0 4
b0 `
b0 d
b0 #
b0 A
b0 _
b0 {
#1880
0/
#1920
0-
b0 %"
1/
#1930
b100 %
b100 K
b100 a
#1940
b1000 3
b1000 b
#1950
b0 6
b0 Q
b0 Z
b0 B
b1100 E
b1100 X
b100 ?
b100 i
0D
0$
b0 V
b1100 ,
b1100 1
b1100 U
#1960
18
b0 .
b0 I
b0 T
b0 ^
b0 t
b1100 6
b1100 Q
b1100 Z
b0 4
b0 `
b0 d
b0 O
b0 M
1D
0:
0/
#1970
b1100 4
b1100 `
b1100 d
b11 |
08
b1100 .
b1100 I
b1100 T
b1100 ^
b1100 t
b1100 O
b1100 M
#1980
0u
bx ~
bx w
0y
b1100 S
#1989
xz
#1990
bx #
bx A
bx _
bx {
#2000
1/
#2010
b1000 %
b1000 K
b1000 a
#2020
b1100 3
b1100 b
#2030
b0 6
b0 Q
b0 Z
b1 G
b1 l
b1010 E
b1010 X
b1 9
b1 e
b10 ?
b10 i
0D
b10000000000001010 ,
b10000000000001010 1
b10000000000001010 U
b1100 !
b1100 >
b1100 R
b1100 f
b1100 x
#2040
b0 4
b0 `
b0 d
b0 |
18
b0 .
b0 I
b0 T
b0 ^
b0 t
b1010 6
b1010 Q
b1010 Z
b0 M
1D
0/
#2050
b1010 4
b1010 `
b1010 d
b10 |
xu
08
b1010 .
b1010 I
b1010 T
b1010 ^
b1010 t
b0 ~
b0 w
1y
b1110 O
b1000 L
b1010 M
#2059
1u
1z
#2060
0u
b0 #
b0 A
b0 _
b0 {
bx ~
bx w
0y
b10110 S
#2069
xz
#2070
bx #
bx A
bx _
bx {
#2080
1/
#2090
b1100 %
b1100 K
b1100 a
#2100
b10000 3
b10000 b
#2110
b0 6
b0 Q
b0 Z
b10 B
b10 G
b10 l
b0 E
b0 X
b10 9
b10 e
b1 @
b1 g
b0 ?
b0 i
0D
b10 V
b10000000100000000100000000 ,
b10000000100000000100000000 1
b10000000100000000100000000 U
#2120
b10110 4
b10110 `
b10110 d
b101 |
b10110 .
b10110 I
b10110 T
b10110 ^
b10110 t
b1000 F
b1000 c
b1000 m
b1100 O
b0 L
b0 M
b1 J
b1 P
b1 W
b1 k
0/
#2130
b1100 4
b1100 `
b1100 d
b11 |
b1100 6
b1100 Q
b1100 Z
b1100 .
b1100 I
b1100 T
b1100 ^
b1100 t
b1100 5
b1100 Y
b1100 ]
b11000 3
b11000 b
b1100 S
b1010 !
b1010 >
b1010 R
b1010 f
b1010 x
b1100 =
b1100 \
b1100 h
#2140
b1000 L
b1100 M
b1110 O
b11110100 7
b11110100 [
#2150
b10110 4
b10110 `
b10110 d
b101 |
b10110 .
b10110 I
b10110 T
b10110 ^
b10110 t
b10110 S
#2160
1/
#2170
b10000 %
b10000 K
b10000 a
#2180
b11100 3
b11100 b
#2190
b1010 B
b0 G
b0 l
b0 9
b0 e
b1010 V
b1010000000000000000100000000 ,
b1010000000000000000100000000 1
b1010000000000000000100000000 U
#2200
b1100 4
b1100 `
b1100 d
b11 |
b1 $"
1-
b1100 .
b1100 I
b1100 T
b1100 ^
b1100 t
b0 F
b0 c
b0 m
1"
0;
b0 J
b0 P
b0 W
b0 k
0/
#2210
b10100 3
b10100 b
#2240
1p
1*
b11 +
b11 o
b11 ""
1)
b1 $"
b1 %"
1/
